EESchema Schematic File Version 4
LIBS:Schemat płytki-cache
EELAYER 29 0
EELAYER END
$Descr A3 16535 11693
encoding utf-8
Sheet 1 1
Title ""
Date ""
Rev ""
Comp ""
Comment1 ""
Comment2 ""
Comment3 ""
Comment4 ""
$EndDescr
$Comp
L Device:R_Small R1
U 1 1 5CB8392D
P 7100 4650
F 0 "R1" V 6904 4650 50  0000 C CNN
F 1 "220R" V 6995 4650 50  0000 C CNN
F 2 "Resistor_SMD:R_0805_2012Metric_Pad1.15x1.40mm_HandSolder" H 7100 4650 50  0001 C CNN
F 3 "~" H 7100 4650 50  0001 C CNN
	1    7100 4650
	0    1    1    0   
$EndComp
$Comp
L warsztaty:KTIR0711S U1
U 1 1 5CADFA64
P 7500 4750
F 0 "U1" H 7500 5075 50  0000 C CNN
F 1 "KTIR0711S" H 7500 4984 50  0000 C CNN
F 2 "warsztaty:KTIR0711S" H 7300 4550 50  0001 L CIN
F 3 "" H 7500 4750 50  0000 L CNN
	1    7500 4750
	1    0    0    -1  
$EndComp
$Comp
L power:GND #PWR02
U 1 1 5CAF1817
P 7200 4850
F 0 "#PWR02" H 7200 4600 50  0001 C CNN
F 1 "GND" H 7205 4677 50  0000 C CNN
F 2 "" H 7200 4850 50  0001 C CNN
F 3 "" H 7200 4850 50  0001 C CNN
	1    7200 4850
	1    0    0    -1  
$EndComp
Wire Wire Line
	6450 4250 6750 4250
Wire Wire Line
	6750 4250 6750 4650
Wire Wire Line
	6750 4650 7000 4650
$Comp
L Device:R_Small R2
U 1 1 5CAFBFC0
P 7100 5350
F 0 "R2" V 6904 5350 50  0000 C CNN
F 1 "220R" V 6995 5350 50  0000 C CNN
F 2 "Resistor_SMD:R_0805_2012Metric_Pad1.15x1.40mm_HandSolder" H 7100 5350 50  0001 C CNN
F 3 "~" H 7100 5350 50  0001 C CNN
	1    7100 5350
	0    1    1    0   
$EndComp
$Comp
L warsztaty:KTIR0711S U2
U 1 1 5CAFBFC6
P 7500 5450
F 0 "U2" H 7500 5775 50  0000 C CNN
F 1 "KTIR0711S" H 7500 5684 50  0000 C CNN
F 2 "warsztaty:KTIR0711S" H 7300 5250 50  0001 L CIN
F 3 "" H 7500 5450 50  0000 L CNN
	1    7500 5450
	1    0    0    -1  
$EndComp
$Comp
L power:GND #PWR03
U 1 1 5CAFBFCC
P 7200 5550
F 0 "#PWR03" H 7200 5300 50  0001 C CNN
F 1 "GND" H 7205 5377 50  0000 C CNN
F 2 "" H 7200 5550 50  0001 C CNN
F 3 "" H 7200 5550 50  0001 C CNN
	1    7200 5550
	1    0    0    -1  
$EndComp
Wire Wire Line
	6750 5350 7000 5350
$Comp
L Device:R_Small R3
U 1 1 5CB0311F
P 7100 6050
F 0 "R3" V 6904 6050 50  0000 C CNN
F 1 "220R" V 6995 6050 50  0000 C CNN
F 2 "Resistor_SMD:R_0805_2012Metric_Pad1.15x1.40mm_HandSolder" H 7100 6050 50  0001 C CNN
F 3 "~" H 7100 6050 50  0001 C CNN
	1    7100 6050
	0    1    1    0   
$EndComp
$Comp
L warsztaty:KTIR0711S U3
U 1 1 5CB03125
P 7500 6150
F 0 "U3" H 7500 6475 50  0000 C CNN
F 1 "KTIR0711S" H 7500 6384 50  0000 C CNN
F 2 "warsztaty:KTIR0711S" H 7300 5950 50  0001 L CIN
F 3 "" H 7500 6150 50  0000 L CNN
	1    7500 6150
	1    0    0    -1  
$EndComp
$Comp
L power:GND #PWR04
U 1 1 5CB0312B
P 7200 6250
F 0 "#PWR04" H 7200 6000 50  0001 C CNN
F 1 "GND" H 7205 6077 50  0000 C CNN
F 2 "" H 7200 6250 50  0001 C CNN
F 3 "" H 7200 6250 50  0001 C CNN
	1    7200 6250
	1    0    0    -1  
$EndComp
Wire Wire Line
	6750 6050 7000 6050
$Comp
L Device:R_Small R4
U 1 1 5CB03132
P 7100 6750
F 0 "R4" V 6904 6750 50  0000 C CNN
F 1 "220R" V 6995 6750 50  0000 C CNN
F 2 "Resistor_SMD:R_0805_2012Metric_Pad1.15x1.40mm_HandSolder" H 7100 6750 50  0001 C CNN
F 3 "~" H 7100 6750 50  0001 C CNN
	1    7100 6750
	0    1    1    0   
$EndComp
$Comp
L warsztaty:KTIR0711S U4
U 1 1 5CB03138
P 7500 6850
F 0 "U4" H 7500 7175 50  0000 C CNN
F 1 "KTIR0711S" H 7500 7084 50  0000 C CNN
F 2 "warsztaty:KTIR0711S" H 7300 6650 50  0001 L CIN
F 3 "" H 7500 6850 50  0000 L CNN
	1    7500 6850
	1    0    0    -1  
$EndComp
$Comp
L power:GND #PWR05
U 1 1 5CB0313E
P 7200 6950
F 0 "#PWR05" H 7200 6700 50  0001 C CNN
F 1 "GND" H 7205 6777 50  0000 C CNN
F 2 "" H 7200 6950 50  0001 C CNN
F 3 "" H 7200 6950 50  0001 C CNN
	1    7200 6950
	1    0    0    -1  
$EndComp
Wire Wire Line
	6750 6750 7000 6750
Wire Wire Line
	6750 4650 6750 5350
Connection ~ 6750 4650
Connection ~ 6750 5350
Wire Wire Line
	6750 5350 6750 6050
Connection ~ 6750 6050
Wire Wire Line
	6750 6050 6750 6750
$Comp
L power:GND #PWR06
U 1 1 5CB0689B
P 7800 4850
F 0 "#PWR06" H 7800 4600 50  0001 C CNN
F 1 "GND" H 7805 4677 50  0000 C CNN
F 2 "" H 7800 4850 50  0001 C CNN
F 3 "" H 7800 4850 50  0001 C CNN
	1    7800 4850
	1    0    0    -1  
$EndComp
$Comp
L power:GND #PWR07
U 1 1 5CB08AD2
P 7800 5550
F 0 "#PWR07" H 7800 5300 50  0001 C CNN
F 1 "GND" H 7805 5377 50  0000 C CNN
F 2 "" H 7800 5550 50  0001 C CNN
F 3 "" H 7800 5550 50  0001 C CNN
	1    7800 5550
	1    0    0    -1  
$EndComp
$Comp
L power:GND #PWR08
U 1 1 5CB0C84B
P 7800 6250
F 0 "#PWR08" H 7800 6000 50  0001 C CNN
F 1 "GND" H 7805 6077 50  0000 C CNN
F 2 "" H 7800 6250 50  0001 C CNN
F 3 "" H 7800 6250 50  0001 C CNN
	1    7800 6250
	1    0    0    -1  
$EndComp
$Comp
L power:GND #PWR09
U 1 1 5CB0E3F4
P 7800 6950
F 0 "#PWR09" H 7800 6700 50  0001 C CNN
F 1 "GND" H 7805 6777 50  0000 C CNN
F 2 "" H 7800 6950 50  0001 C CNN
F 3 "" H 7800 6950 50  0001 C CNN
	1    7800 6950
	1    0    0    -1  
$EndComp
$Comp
L Device:R_Small R5
U 1 1 5CB23058
P 7950 4550
F 0 "R5" H 8009 4596 50  0000 L CNN
F 1 "10K" H 8009 4505 50  0000 L CNN
F 2 "Resistor_SMD:R_0805_2012Metric_Pad1.15x1.40mm_HandSolder" H 7950 4550 50  0001 C CNN
F 3 "~" H 7950 4550 50  0001 C CNN
	1    7950 4550
	1    0    0    -1  
$EndComp
Wire Wire Line
	7800 4650 7950 4650
$Comp
L Device:R_Small R6
U 1 1 5CB2AF98
P 7950 5250
F 0 "R6" H 8009 5296 50  0000 L CNN
F 1 "10K" H 8009 5205 50  0000 L CNN
F 2 "Resistor_SMD:R_0805_2012Metric_Pad1.15x1.40mm_HandSolder" H 7950 5250 50  0001 C CNN
F 3 "~" H 7950 5250 50  0001 C CNN
	1    7950 5250
	1    0    0    -1  
$EndComp
Wire Wire Line
	7800 5350 7950 5350
$Comp
L Device:R_Small R7
U 1 1 5CB2CF2A
P 7950 5950
F 0 "R7" H 8009 5996 50  0000 L CNN
F 1 "10K" H 8009 5905 50  0000 L CNN
F 2 "Resistor_SMD:R_0805_2012Metric_Pad1.15x1.40mm_HandSolder" H 7950 5950 50  0001 C CNN
F 3 "~" H 7950 5950 50  0001 C CNN
	1    7950 5950
	1    0    0    -1  
$EndComp
Wire Wire Line
	7800 6050 7950 6050
$Comp
L Device:R_Small R8
U 1 1 5CB2EC31
P 7950 6650
F 0 "R8" H 8009 6696 50  0000 L CNN
F 1 "10K" H 8009 6605 50  0000 L CNN
F 2 "Resistor_SMD:R_0805_2012Metric_Pad1.15x1.40mm_HandSolder" H 7950 6650 50  0001 C CNN
F 3 "~" H 7950 6650 50  0001 C CNN
	1    7950 6650
	1    0    0    -1  
$EndComp
Wire Wire Line
	7800 6750 7950 6750
$Comp
L power:+3.3V #PWR012
U 1 1 5CB30964
P 8400 4200
F 0 "#PWR012" H 8400 4050 50  0001 C CNN
F 1 "+3.3V" H 8415 4373 50  0000 C CNN
F 2 "" H 8400 4200 50  0001 C CNN
F 3 "" H 8400 4200 50  0001 C CNN
	1    8400 4200
	1    0    0    -1  
$EndComp
$Comp
L Device:R_Small R13
U 1 1 5CB4EDED
P 9700 4650
F 0 "R13" V 9504 4650 50  0000 C CNN
F 1 "220R" V 9595 4650 50  0000 C CNN
F 2 "Resistor_SMD:R_0805_2012Metric_Pad1.15x1.40mm_HandSolder" H 9700 4650 50  0001 C CNN
F 3 "~" H 9700 4650 50  0001 C CNN
	1    9700 4650
	0    -1   1    0   
$EndComp
$Comp
L warsztaty:KTIR0711S U5
U 1 1 5CB4EDF3
P 9300 4750
F 0 "U5" H 9300 5075 50  0000 C CNN
F 1 "KTIR0711S" H 9300 4984 50  0000 C CNN
F 2 "warsztaty:KTIR0711S" H 9100 4550 50  0001 L CIN
F 3 "" H 9300 4750 50  0000 L CNN
	1    9300 4750
	-1   0    0    -1  
$EndComp
$Comp
L power:GND #PWR017
U 1 1 5CB4EDFF
P 9600 4850
F 0 "#PWR017" H 9600 4600 50  0001 C CNN
F 1 "GND" H 9605 4677 50  0000 C CNN
F 2 "" H 9600 4850 50  0001 C CNN
F 3 "" H 9600 4850 50  0001 C CNN
	1    9600 4850
	-1   0    0    -1  
$EndComp
Wire Wire Line
	10350 4250 10050 4250
Wire Wire Line
	10050 4250 10050 4650
Wire Wire Line
	10050 4650 9800 4650
$Comp
L Device:R_Small R14
U 1 1 5CB4EE08
P 9700 5350
F 0 "R14" V 9504 5350 50  0000 C CNN
F 1 "220R" V 9595 5350 50  0000 C CNN
F 2 "Resistor_SMD:R_0805_2012Metric_Pad1.15x1.40mm_HandSolder" H 9700 5350 50  0001 C CNN
F 3 "~" H 9700 5350 50  0001 C CNN
	1    9700 5350
	0    -1   1    0   
$EndComp
$Comp
L warsztaty:KTIR0711S U6
U 1 1 5CB4EE0E
P 9300 5450
F 0 "U6" H 9300 5775 50  0000 C CNN
F 1 "KTIR0711S" H 9300 5684 50  0000 C CNN
F 2 "warsztaty:KTIR0711S" H 9100 5250 50  0001 L CIN
F 3 "" H 9300 5450 50  0000 L CNN
	1    9300 5450
	-1   0    0    -1  
$EndComp
$Comp
L power:GND #PWR018
U 1 1 5CB4EE14
P 9600 5550
F 0 "#PWR018" H 9600 5300 50  0001 C CNN
F 1 "GND" H 9605 5377 50  0000 C CNN
F 2 "" H 9600 5550 50  0001 C CNN
F 3 "" H 9600 5550 50  0001 C CNN
	1    9600 5550
	-1   0    0    -1  
$EndComp
Wire Wire Line
	10050 5350 9800 5350
$Comp
L Device:R_Small R15
U 1 1 5CB4EE1B
P 9700 6050
F 0 "R15" V 9504 6050 50  0000 C CNN
F 1 "220R" V 9595 6050 50  0000 C CNN
F 2 "Resistor_SMD:R_0805_2012Metric_Pad1.15x1.40mm_HandSolder" H 9700 6050 50  0001 C CNN
F 3 "~" H 9700 6050 50  0001 C CNN
	1    9700 6050
	0    -1   1    0   
$EndComp
$Comp
L warsztaty:KTIR0711S U7
U 1 1 5CB4EE21
P 9300 6150
F 0 "U7" H 9300 6475 50  0000 C CNN
F 1 "KTIR0711S" H 9300 6384 50  0000 C CNN
F 2 "warsztaty:KTIR0711S" H 9100 5950 50  0001 L CIN
F 3 "" H 9300 6150 50  0000 L CNN
	1    9300 6150
	-1   0    0    -1  
$EndComp
$Comp
L power:GND #PWR019
U 1 1 5CB4EE27
P 9600 6250
F 0 "#PWR019" H 9600 6000 50  0001 C CNN
F 1 "GND" H 9605 6077 50  0000 C CNN
F 2 "" H 9600 6250 50  0001 C CNN
F 3 "" H 9600 6250 50  0001 C CNN
	1    9600 6250
	-1   0    0    -1  
$EndComp
Wire Wire Line
	10050 6050 9800 6050
$Comp
L Device:R_Small R16
U 1 1 5CB4EE2E
P 9700 6750
F 0 "R16" V 9504 6750 50  0000 C CNN
F 1 "220R" V 9595 6750 50  0000 C CNN
F 2 "Resistor_SMD:R_0805_2012Metric_Pad1.15x1.40mm_HandSolder" H 9700 6750 50  0001 C CNN
F 3 "~" H 9700 6750 50  0001 C CNN
	1    9700 6750
	0    -1   1    0   
$EndComp
$Comp
L warsztaty:KTIR0711S U8
U 1 1 5CB4EE34
P 9300 6850
F 0 "U8" H 9300 7175 50  0000 C CNN
F 1 "KTIR0711S" H 9300 7084 50  0000 C CNN
F 2 "warsztaty:KTIR0711S" H 9100 6650 50  0001 L CIN
F 3 "" H 9300 6850 50  0000 L CNN
	1    9300 6850
	-1   0    0    -1  
$EndComp
$Comp
L power:GND #PWR020
U 1 1 5CB4EE3A
P 9600 6950
F 0 "#PWR020" H 9600 6700 50  0001 C CNN
F 1 "GND" H 9605 6777 50  0000 C CNN
F 2 "" H 9600 6950 50  0001 C CNN
F 3 "" H 9600 6950 50  0001 C CNN
	1    9600 6950
	-1   0    0    -1  
$EndComp
Wire Wire Line
	10050 6750 9800 6750
Wire Wire Line
	10050 4650 10050 5350
Connection ~ 10050 4650
Connection ~ 10050 5350
Wire Wire Line
	10050 5350 10050 6050
Connection ~ 10050 6050
Wire Wire Line
	10050 6050 10050 6750
$Comp
L power:GND #PWR013
U 1 1 5CB4EE47
P 9000 4850
F 0 "#PWR013" H 9000 4600 50  0001 C CNN
F 1 "GND" H 9005 4677 50  0000 C CNN
F 2 "" H 9000 4850 50  0001 C CNN
F 3 "" H 9000 4850 50  0001 C CNN
	1    9000 4850
	-1   0    0    -1  
$EndComp
$Comp
L power:GND #PWR014
U 1 1 5CB4EE4D
P 9000 5550
F 0 "#PWR014" H 9000 5300 50  0001 C CNN
F 1 "GND" H 9005 5377 50  0000 C CNN
F 2 "" H 9000 5550 50  0001 C CNN
F 3 "" H 9000 5550 50  0001 C CNN
	1    9000 5550
	-1   0    0    -1  
$EndComp
$Comp
L power:GND #PWR015
U 1 1 5CB4EE53
P 9000 6250
F 0 "#PWR015" H 9000 6000 50  0001 C CNN
F 1 "GND" H 9005 6077 50  0000 C CNN
F 2 "" H 9000 6250 50  0001 C CNN
F 3 "" H 9000 6250 50  0001 C CNN
	1    9000 6250
	-1   0    0    -1  
$EndComp
$Comp
L power:GND #PWR016
U 1 1 5CB4EE59
P 9000 6950
F 0 "#PWR016" H 9000 6700 50  0001 C CNN
F 1 "GND" H 9005 6777 50  0000 C CNN
F 2 "" H 9000 6950 50  0001 C CNN
F 3 "" H 9000 6950 50  0001 C CNN
	1    9000 6950
	-1   0    0    -1  
$EndComp
$Comp
L Device:R_Small R9
U 1 1 5CB4EE5F
P 8850 4550
F 0 "R9" H 8909 4596 50  0000 L CNN
F 1 "10K" H 8909 4505 50  0000 L CNN
F 2 "Resistor_SMD:R_0805_2012Metric_Pad1.15x1.40mm_HandSolder" H 8850 4550 50  0001 C CNN
F 3 "~" H 8850 4550 50  0001 C CNN
	1    8850 4550
	-1   0    0    -1  
$EndComp
Wire Wire Line
	9000 4650 8850 4650
$Comp
L Device:R_Small R10
U 1 1 5CB4EE66
P 8850 5250
F 0 "R10" H 8909 5296 50  0000 L CNN
F 1 "10K" H 8909 5205 50  0000 L CNN
F 2 "Resistor_SMD:R_0805_2012Metric_Pad1.15x1.40mm_HandSolder" H 8850 5250 50  0001 C CNN
F 3 "~" H 8850 5250 50  0001 C CNN
	1    8850 5250
	-1   0    0    -1  
$EndComp
Wire Wire Line
	9000 5350 8850 5350
$Comp
L Device:R_Small R11
U 1 1 5CB4EE6D
P 8850 5950
F 0 "R11" H 8909 5996 50  0000 L CNN
F 1 "10K" H 8909 5905 50  0000 L CNN
F 2 "Resistor_SMD:R_0805_2012Metric_Pad1.15x1.40mm_HandSolder" H 8850 5950 50  0001 C CNN
F 3 "~" H 8850 5950 50  0001 C CNN
	1    8850 5950
	-1   0    0    -1  
$EndComp
Wire Wire Line
	9000 6050 8850 6050
$Comp
L Device:R_Small R12
U 1 1 5CB4EE74
P 8850 6650
F 0 "R12" H 8909 6696 50  0000 L CNN
F 1 "10K" H 8909 6605 50  0000 L CNN
F 2 "Resistor_SMD:R_0805_2012Metric_Pad1.15x1.40mm_HandSolder" H 8850 6650 50  0001 C CNN
F 3 "~" H 8850 6650 50  0001 C CNN
	1    8850 6650
	-1   0    0    -1  
$EndComp
Wire Wire Line
	9000 6750 8850 6750
Wire Wire Line
	8400 4450 8400 4200
Wire Wire Line
	7950 4450 8400 4450
Connection ~ 8400 4450
Wire Wire Line
	8400 4450 8850 4450
Wire Wire Line
	7950 5150 8400 5150
Wire Wire Line
	8400 5150 8400 4450
Wire Wire Line
	8400 5150 8850 5150
Connection ~ 8400 5150
Wire Wire Line
	7950 5850 8400 5850
Wire Wire Line
	8400 5850 8400 5150
Wire Wire Line
	8850 5850 8400 5850
Connection ~ 8400 5850
Wire Wire Line
	7950 6550 8400 6550
Wire Wire Line
	8400 6550 8400 5850
Wire Wire Line
	8850 6550 8400 6550
Connection ~ 8400 6550
Text Notes 8900 4100 0    50   ~ 0
Czujniki
Text GLabel 8200 4650 3    50   Input ~ 0
CZ1
Text GLabel 8200 5350 3    50   Input ~ 0
CZ2
Text GLabel 8200 6050 3    50   Input ~ 0
CZ3
Text GLabel 8200 6750 3    50   Input ~ 0
CZ4
Text GLabel 8600 4650 3    50   Input ~ 0
CZ5
Text GLabel 8600 5350 3    50   Input ~ 0
CZ6
Text GLabel 8600 6050 3    50   Input ~ 0
CZ7
Text GLabel 8600 6750 3    50   Input ~ 0
CZ8
Wire Wire Line
	7950 4650 8200 4650
Connection ~ 7950 4650
Wire Wire Line
	7950 5350 8200 5350
Connection ~ 7950 5350
Wire Wire Line
	7950 6050 8200 6050
Connection ~ 7950 6050
Wire Wire Line
	7950 6750 8200 6750
Connection ~ 7950 6750
Wire Wire Line
	8850 6750 8600 6750
Connection ~ 8850 6750
Wire Wire Line
	8850 6050 8600 6050
Connection ~ 8850 6050
Wire Wire Line
	8850 5350 8600 5350
Connection ~ 8850 5350
Wire Wire Line
	8850 4650 8600 4650
Connection ~ 8850 4650
Text GLabel 8450 2550 0    50   Input ~ 0
CZ1
Text GLabel 8450 2650 0    50   Input ~ 0
CZ2
Text GLabel 8450 2750 0    50   Input ~ 0
CZ3
Text GLabel 8450 2850 0    50   Input ~ 0
CZ4
Text GLabel 8450 2950 0    50   Input ~ 0
CZ5
Text GLabel 8450 3050 0    50   Input ~ 0
CZ6
Text GLabel 8450 3150 0    50   Input ~ 0
CZ7
Text GLabel 8450 3250 0    50   Input ~ 0
CZ8
$Comp
L power:GND #PWR011
U 1 1 5CD6F499
P 8300 3350
F 0 "#PWR011" H 8300 3100 50  0001 C CNN
F 1 "GND" H 8305 3177 50  0000 C CNN
F 2 "" H 8300 3350 50  0001 C CNN
F 3 "" H 8300 3350 50  0001 C CNN
	1    8300 3350
	-1   0    0    -1  
$EndComp
Wire Wire Line
	8450 3350 8300 3350
$Comp
L power:+3.3V #PWR021
U 1 1 5CCC7011
P 10350 4250
F 0 "#PWR021" H 10350 4100 50  0001 C CNN
F 1 "+3.3V" H 10365 4423 50  0000 C CNN
F 2 "" H 10350 4250 50  0001 C CNN
F 3 "" H 10350 4250 50  0001 C CNN
	1    10350 4250
	1    0    0    -1  
$EndComp
$Comp
L power:+3.3V #PWR01
U 1 1 5CCC9E36
P 6450 4250
F 0 "#PWR01" H 6450 4100 50  0001 C CNN
F 1 "+3.3V" H 6465 4423 50  0000 C CNN
F 2 "" H 6450 4250 50  0001 C CNN
F 3 "" H 6450 4250 50  0001 C CNN
	1    6450 4250
	1    0    0    -1  
$EndComp
$Comp
L Connector_Generic:Conn_01x10 J1
U 1 1 5CEA788E
P 8650 2850
F 0 "J1" H 8730 2842 50  0000 L CNN
F 1 "Conn_01x10" H 8730 2751 50  0000 L CNN
F 2 "Connector_FFC-FPC:TE_1-84952-0_1x10-1MP_P1.0mm_Horizontal" H 8650 2850 50  0001 C CNN
F 3 "~" H 8650 2850 50  0001 C CNN
	1    8650 2850
	1    0    0    -1  
$EndComp
$Comp
L power:+3.3V #PWR010
U 1 1 5CEA9281
P 8300 2400
F 0 "#PWR010" H 8300 2250 50  0001 C CNN
F 1 "+3.3V" H 8315 2573 50  0000 C CNN
F 2 "" H 8300 2400 50  0001 C CNN
F 3 "" H 8300 2400 50  0001 C CNN
	1    8300 2400
	1    0    0    -1  
$EndComp
Wire Wire Line
	8450 2450 8300 2450
Wire Wire Line
	8300 2450 8300 2400
$Comp
L power:PWR_FLAG #FLG0101
U 1 1 5CD24397
P 10250 1250
F 0 "#FLG0101" H 10250 1325 50  0001 C CNN
F 1 "PWR_FLAG" H 10250 1423 50  0000 C CNN
F 2 "" H 10250 1250 50  0001 C CNN
F 3 "~" H 10250 1250 50  0001 C CNN
	1    10250 1250
	-1   0    0    1   
$EndComp
$Comp
L power:GND #PWR0101
U 1 1 5CD2439D
P 10700 1200
F 0 "#PWR0101" H 10700 950 50  0001 C CNN
F 1 "GND" H 10705 1027 50  0000 C CNN
F 2 "" H 10700 1200 50  0001 C CNN
F 3 "" H 10700 1200 50  0001 C CNN
	1    10700 1200
	1    0    0    -1  
$EndComp
$Comp
L power:PWR_FLAG #FLG0102
U 1 1 5CD243A3
P 10700 1000
F 0 "#FLG0102" H 10700 1075 50  0001 C CNN
F 1 "PWR_FLAG" H 10700 1173 50  0000 C CNN
F 2 "" H 10700 1000 50  0001 C CNN
F 3 "~" H 10700 1000 50  0001 C CNN
	1    10700 1000
	1    0    0    -1  
$EndComp
Wire Wire Line
	10700 1000 10700 1200
Wire Wire Line
	10250 1250 10250 1000
$Comp
L power:+3.3V #PWR0102
U 1 1 5CD243AB
P 10250 1000
F 0 "#PWR0102" H 10250 850 50  0001 C CNN
F 1 "+3.3V" H 10265 1173 50  0000 C CNN
F 2 "" H 10250 1000 50  0001 C CNN
F 3 "" H 10250 1000 50  0001 C CNN
	1    10250 1000
	1    0    0    -1  
$EndComp
$EndSCHEMATC
