EESchema Schematic File Version 4
LIBS:Schemat płytki-cache
EELAYER 29 0
EELAYER END
$Descr A3 16535 11693
encoding utf-8
Sheet 1 1
Title ""
Date ""
Rev ""
Comp ""
Comment1 ""
Comment2 ""
Comment3 ""
Comment4 ""
$EndDescr
$Comp
L Switch:SW_SPDT SW1
U 1 1 5CA5FAD0
P 4400 2050
F 0 "SW1" H 4400 2335 50  0000 C CNN
F 1 "SW_SPDT" H 4400 2244 50  0000 C CNN
F 2 "Button_Switch_THT:spdt_3pin" H 4400 2050 50  0001 C CNN
F 3 "~" H 4400 2050 50  0001 C CNN
	1    4400 2050
	1    0    0    -1  
$EndComp
$Comp
L Connector_Generic:Conn_01x02 J1
U 1 1 5CA61D3E
P 2300 2100
F 0 "J1" H 2218 1775 50  0000 C CNN
F 1 "Conn_01x02" H 2218 1866 50  0000 C CNN
F 2 "TerminalBlock_TE-Connectivity:TerminalBlock_TE_282834-2_1x02_P2.54mm_Horizontal" H 2300 2100 50  0001 C CNN
F 3 "~" H 2300 2100 50  0001 C CNN
	1    2300 2100
	-1   0    0    1   
$EndComp
$Comp
L power:GND #PWR01
U 1 1 5CA62951
P 2700 2200
F 0 "#PWR01" H 2700 1950 50  0001 C CNN
F 1 "GND" H 2705 2027 50  0000 C CNN
F 2 "" H 2700 2200 50  0001 C CNN
F 3 "" H 2700 2200 50  0001 C CNN
	1    2700 2200
	1    0    0    -1  
$EndComp
Wire Wire Line
	2700 2200 2700 2100
Wire Wire Line
	2700 2100 2500 2100
$Comp
L power:VCC #PWR04
U 1 1 5CA62FCA
P 2900 2200
F 0 "#PWR04" H 2900 2050 50  0001 C CNN
F 1 "VCC" H 2918 2373 50  0000 C CNN
F 2 "" H 2900 2200 50  0001 C CNN
F 3 "" H 2900 2200 50  0001 C CNN
	1    2900 2200
	-1   0    0    1   
$EndComp
Wire Wire Line
	2900 2200 2900 2000
Wire Wire Line
	2900 2000 2500 2000
Text GLabel 3100 9400 0    50   Input ~ 0
WEJ_B2
Text GLabel 3100 9300 0    50   Input ~ 0
WEJ_B1
Text GLabel 3100 9200 0    50   Input ~ 0
WEJ_A2
Text GLabel 3100 9100 0    50   Input ~ 0
WEJ_A1
Text GLabel 3100 8900 0    50   Input ~ 0
PWM_B
Text GLabel 3100 8800 0    50   Input ~ 0
PWM_A
$Comp
L power:+3.3V #PWR05
U 1 1 5CB4B469
P 3100 7000
F 0 "#PWR05" H 3100 6850 50  0001 C CNN
F 1 "+3.3V" H 3115 7173 50  0000 C CNN
F 2 "" H 3100 7000 50  0001 C CNN
F 3 "" H 3100 7000 50  0001 C CNN
	1    3100 7000
	1    0    0    -1  
$EndComp
Wire Wire Line
	3100 7000 3100 7300
Wire Wire Line
	2800 7500 2800 7300
Connection ~ 2800 7500
Wire Wire Line
	2800 7500 2700 7500
Wire Wire Line
	2800 7700 2800 7500
Connection ~ 3100 7300
$Comp
L Device:C C1
U 1 1 5CB4070C
P 2950 7300
F 0 "C1" V 3202 7300 50  0000 C CNN
F 1 "100nF" V 3111 7300 50  0000 C CNN
F 2 "Capacitor_SMD:C_0805_2012Metric_Pad1.15x1.40mm_HandSolder" H 2988 7150 50  0001 C CNN
F 3 "~" H 2950 7300 50  0001 C CNN
	1    2950 7300
	0    -1   -1   0   
$EndComp
$Comp
L power:GND #PWR014
U 1 1 5CB38579
P 4550 8050
F 0 "#PWR014" H 4550 7800 50  0001 C CNN
F 1 "GND" H 4555 7877 50  0000 C CNN
F 2 "" H 4550 8050 50  0001 C CNN
F 3 "" H 4550 8050 50  0001 C CNN
	1    4550 8050
	1    0    0    -1  
$EndComp
$Comp
L Device:C C4
U 1 1 5CB2F17E
P 4350 7850
F 0 "C4" H 4465 7896 50  0000 L CNN
F 1 "100nF" H 4465 7805 50  0000 L CNN
F 2 "Capacitor_SMD:C_0805_2012Metric_Pad1.15x1.40mm_HandSolder" H 4388 7700 50  0001 C CNN
F 3 "~" H 4350 7850 50  0001 C CNN
	1    4350 7850
	1    0    0    -1  
$EndComp
Connection ~ 3100 8000
Wire Wire Line
	3100 8000 3400 8000
Wire Wire Line
	3100 8600 3100 8000
Text GLabel 4600 9350 2    50   Input ~ 0
WYJ_Silnik_2B
Text GLabel 4600 9150 2    50   Input ~ 0
WYJ_Silnik_1B
Text GLabel 4600 8850 2    50   Input ~ 0
WYJ_Silnik_2A
Text GLabel 4600 8650 2    50   Input ~ 0
WYJ_Silnik_1A
$Comp
L power:GND #PWR013
U 1 1 5CAEAF4C
P 4250 10200
F 0 "#PWR013" H 4250 9950 50  0001 C CNN
F 1 "GND" V 4255 10072 50  0000 R CNN
F 2 "" H 4250 10200 50  0001 C CNN
F 3 "" H 4250 10200 50  0001 C CNN
	1    4250 10200
	1    0    0    -1  
$EndComp
Connection ~ 3700 10200
Wire Wire Line
	3400 10200 3700 10200
Wire Wire Line
	4000 10200 4250 10200
Connection ~ 4000 10200
Wire Wire Line
	3900 10200 4000 10200
Connection ~ 3900 10200
Wire Wire Line
	3800 10200 3900 10200
Connection ~ 3800 10200
Wire Wire Line
	3700 10200 3800 10200
Wire Wire Line
	4450 9350 4450 9400
Connection ~ 4450 9350
Wire Wire Line
	4450 9350 4600 9350
Wire Wire Line
	4450 9300 4450 9350
Wire Wire Line
	4300 9400 4450 9400
Wire Wire Line
	4300 9300 4450 9300
Wire Wire Line
	4450 9150 4450 9100
Connection ~ 4450 9150
Wire Wire Line
	4450 9150 4600 9150
Wire Wire Line
	4450 9200 4450 9150
Wire Wire Line
	4300 9200 4450 9200
Wire Wire Line
	4300 9100 4450 9100
Wire Wire Line
	4450 8850 4450 8800
Connection ~ 4450 8850
Wire Wire Line
	4450 8850 4600 8850
Wire Wire Line
	4450 8900 4450 8850
Wire Wire Line
	4300 8900 4450 8900
Wire Wire Line
	4300 8800 4450 8800
Wire Wire Line
	4450 8650 4450 8700
Connection ~ 4450 8650
Wire Wire Line
	4450 8650 4600 8650
Wire Wire Line
	4300 8700 4450 8700
Wire Wire Line
	4450 8600 4450 8650
Wire Wire Line
	4300 8600 4450 8600
$Comp
L power:GND #PWR010
U 1 1 5CA7A86E
P 3900 4900
F 0 "#PWR010" H 3900 4650 50  0001 C CNN
F 1 "GND" H 3905 4727 50  0000 C CNN
F 2 "" H 3900 4900 50  0001 C CNN
F 3 "" H 3900 4900 50  0001 C CNN
	1    3900 4900
	1    0    0    -1  
$EndComp
Wire Wire Line
	3350 4450 3350 4750
Wire Wire Line
	3150 4250 3350 4250
$Comp
L power:+3.3V #PWR016
U 1 1 5CA6A549
P 4650 4250
F 0 "#PWR016" H 4650 4100 50  0001 C CNN
F 1 "+3.3V" V 4665 4378 50  0000 L CNN
F 2 "" H 4650 4250 50  0001 C CNN
F 3 "" H 4650 4250 50  0001 C CNN
	1    4650 4250
	0    1    1    0   
$EndComp
$Comp
L Device:CP_Small C3
U 1 1 5CA68417
P 3350 4350
F 0 "C3" H 3438 4396 50  0000 L CNN
F 1 "10uF" H 3438 4305 50  0000 L CNN
F 2 "Capacitor_Tantalum_SMD:CP_EIA-3216-18_Kemet-A_Pad1.58x1.35mm_HandSolder" H 3350 4350 50  0001 C CNN
F 3 "~" H 3350 4350 50  0001 C CNN
	1    3350 4350
	1    0    0    -1  
$EndComp
$Comp
L Regulator_Linear:LM1117-3.3 U2
U 1 1 5CA646A3
P 3900 4250
F 0 "U2" H 3900 4492 50  0000 C CNN
F 1 "LM1117-3.3" H 3900 4401 50  0000 C CNN
F 2 "Package_TO_SOT_SMD:SOT-223-3_TabPin2" H 3900 4250 50  0001 C CNN
F 3 "http://www.ti.com/lit/ds/symlink/lm1117.pdf" H 3900 4250 50  0001 C CNN
	1    3900 4250
	1    0    0    -1  
$EndComp
Text Notes 1800 1750 0    50   ~ 0
Dobrać connector do odpowiedniego typu wybranego lipo\nten tu to tylko przykład
NoConn ~ 4600 2150
$Comp
L power:+8V #PWR06
U 1 1 5CB02A94
P 3150 4250
F 0 "#PWR06" H 3150 4100 50  0001 C CNN
F 1 "+8V" V 3165 4378 50  0000 L CNN
F 2 "" H 3150 4250 50  0001 C CNN
F 3 "" H 3150 4250 50  0001 C CNN
	1    3150 4250
	0    -1   -1   0   
$EndComp
Wire Wire Line
	4450 4250 4650 4250
$Comp
L Device:CP_Small C5
U 1 1 5CA75CDE
P 4450 4350
F 0 "C5" H 4538 4396 50  0000 L CNN
F 1 "10uF" H 4538 4305 50  0000 L CNN
F 2 "Capacitor_Tantalum_SMD:CP_EIA-3216-18_Kemet-A_Pad1.58x1.35mm_HandSolder" H 4450 4350 50  0001 C CNN
F 3 "~" H 4450 4350 50  0001 C CNN
	1    4450 4350
	1    0    0    -1  
$EndComp
Wire Wire Line
	4450 4750 4450 4450
Text Notes 2550 5300 0    50   ~ 0
kaskadowe stabilizowanie napięcia ledy zasilające na 8v 5v  i 3,3v
$Comp
L Device:LED D2
U 1 1 5CBAE4EC
P 4750 3600
F 0 "D2" H 4743 3345 50  0000 C CNN
F 1 "LED" H 4743 3436 50  0000 C CNN
F 2 "LED_SMD:LED_0805_2012Metric_Pad1.15x1.40mm_HandSolder" H 4750 3600 50  0001 C CNN
F 3 "~" H 4750 3600 50  0001 C CNN
	1    4750 3600
	-1   0    0    1   
$EndComp
$Comp
L Device:R_Small R3
U 1 1 5CBAE4F2
P 4400 3600
F 0 "R3" V 4204 3600 50  0000 C CNN
F 1 "130R" V 4295 3600 50  0000 C CNN
F 2 "Resistor_SMD:R_0805_2012Metric_Pad1.15x1.40mm_HandSolder" H 4400 3600 50  0001 C CNN
F 3 "~" H 4400 3600 50  0001 C CNN
	1    4400 3600
	0    1    1    0   
$EndComp
Wire Wire Line
	4200 3600 4300 3600
Wire Wire Line
	4500 3600 4600 3600
$Comp
L power:GND #PWR017
U 1 1 5CBAE4FA
P 5000 3600
F 0 "#PWR017" H 5000 3350 50  0001 C CNN
F 1 "GND" H 5005 3427 50  0000 C CNN
F 2 "" H 5000 3600 50  0001 C CNN
F 3 "" H 5000 3600 50  0001 C CNN
	1    5000 3600
	1    0    0    -1  
$EndComp
Wire Wire Line
	4900 3600 5000 3600
$Comp
L power:+3.3V #PWR012
U 1 1 5CBB7AB6
P 4200 3600
F 0 "#PWR012" H 4200 3450 50  0001 C CNN
F 1 "+3.3V" H 4215 3773 50  0000 C CNN
F 2 "" H 4200 3600 50  0001 C CNN
F 3 "" H 4200 3600 50  0001 C CNN
	1    4200 3600
	1    0    0    -1  
$EndComp
$Comp
L power:VCC #PWR07
U 1 1 5CC4B56F
P 3350 2050
F 0 "#PWR07" H 3350 1900 50  0001 C CNN
F 1 "VCC" H 3367 2223 50  0000 C CNN
F 2 "" H 3350 2050 50  0001 C CNN
F 3 "" H 3350 2050 50  0001 C CNN
	1    3350 2050
	1    0    0    -1  
$EndComp
$Comp
L power:GND #PWR08
U 1 1 5CC4C442
P 3350 2550
F 0 "#PWR08" H 3350 2300 50  0001 C CNN
F 1 "GND" H 3355 2377 50  0000 C CNN
F 2 "" H 3350 2550 50  0001 C CNN
F 3 "" H 3350 2550 50  0001 C CNN
	1    3350 2550
	1    0    0    -1  
$EndComp
Wire Wire Line
	3350 2050 3550 2050
$Comp
L power:+8V #PWR015
U 1 1 5CA609F2
P 4600 1950
F 0 "#PWR015" H 4600 1800 50  0001 C CNN
F 1 "+8V" V 4615 2078 50  0000 L CNN
F 2 "" H 4600 1950 50  0001 C CNN
F 3 "" H 4600 1950 50  0001 C CNN
	1    4600 1950
	0    1    1    0   
$EndComp
Wire Wire Line
	3450 3500 3550 3500
$Comp
L power:GND #PWR09
U 1 1 5CB8FC23
P 3550 3500
F 0 "#PWR09" H 3550 3250 50  0001 C CNN
F 1 "GND" H 3555 3327 50  0000 C CNN
F 2 "" H 3550 3500 50  0001 C CNN
F 3 "" H 3550 3500 50  0001 C CNN
	1    3550 3500
	1    0    0    -1  
$EndComp
Wire Wire Line
	3050 3500 3150 3500
Wire Wire Line
	2750 3500 2850 3500
$Comp
L Device:R_Small R1
U 1 1 5CB7C8D0
P 2950 3500
F 0 "R1" V 2754 3500 50  0000 C CNN
F 1 "640R" V 2845 3500 50  0000 C CNN
F 2 "Resistor_SMD:R_0805_2012Metric_Pad1.15x1.40mm_HandSolder" H 2950 3500 50  0001 C CNN
F 3 "~" H 2950 3500 50  0001 C CNN
	1    2950 3500
	0    1    1    0   
$EndComp
$Comp
L power:+8V #PWR03
U 1 1 5CB6B741
P 2750 3500
F 0 "#PWR03" H 2750 3350 50  0001 C CNN
F 1 "+8V" V 2765 3628 50  0000 L CNN
F 2 "" H 2750 3500 50  0001 C CNN
F 3 "" H 2750 3500 50  0001 C CNN
	1    2750 3500
	1    0    0    -1  
$EndComp
$Comp
L Device:LED D1
U 1 1 5CB6A5E7
P 3300 3500
F 0 "D1" H 3293 3245 50  0000 C CNN
F 1 "LED" H 3293 3336 50  0000 C CNN
F 2 "LED_SMD:LED_0805_2012Metric_Pad1.15x1.40mm_HandSolder" H 3300 3500 50  0001 C CNN
F 3 "~" H 3300 3500 50  0001 C CNN
	1    3300 3500
	-1   0    0    1   
$EndComp
Text GLabel 13450 5950 0    50   Input ~ 0
CZ1
Text GLabel 13450 6050 0    50   Input ~ 0
CZ2
Text GLabel 13450 6150 0    50   Input ~ 0
CZ3
Text GLabel 13450 6250 0    50   Input ~ 0
CZ4
Text GLabel 13450 6350 0    50   Input ~ 0
CZ5
Text GLabel 13450 6450 0    50   Input ~ 0
CZ6
Text GLabel 13450 6550 0    50   Input ~ 0
CZ7
Text GLabel 13450 6650 0    50   Input ~ 0
CZ8
$Comp
L power:GND #PWR039
U 1 1 5CD8461D
P 13300 6750
F 0 "#PWR039" H 13300 6500 50  0001 C CNN
F 1 "GND" H 13305 6577 50  0000 C CNN
F 2 "" H 13300 6750 50  0001 C CNN
F 3 "" H 13300 6750 50  0001 C CNN
	1    13300 6750
	1    0    0    -1  
$EndComp
Wire Wire Line
	13300 6750 13450 6750
Connection ~ 4450 4250
Wire Wire Line
	3600 4250 3350 4250
Wire Wire Line
	3900 4550 3900 4750
Connection ~ 3350 4250
Wire Wire Line
	3350 4750 3900 4750
Connection ~ 3900 4750
Wire Wire Line
	3900 4750 3900 4900
Wire Wire Line
	4200 4250 4450 4250
Wire Wire Line
	3900 4750 4450 4750
$Comp
L Connector_Generic:Conn_01x05 J4
U 1 1 5D0B8D1F
P 13800 5000
F 0 "J4" H 13880 5042 50  0000 L CNN
F 1 "SWD" H 13880 4951 50  0000 L CNN
F 2 "Connector_Molex:Molex_SPOX_5267-05A_1x05_P2.50mm_Vertical" H 13800 5000 50  0001 C CNN
F 3 "~" H 13800 5000 50  0001 C CNN
	1    13800 5000
	1    0    0    -1  
$EndComp
Text GLabel 13600 5100 0    50   Input ~ 0
SWDIO
Text GLabel 13600 4900 0    50   Input ~ 0
SWCLK
Text GLabel 13600 5200 0    50   Input ~ 0
RESET
Text Notes 13050 5450 0    50   ~ 0
Złącze programatora
$Comp
L power:GND #PWR019
U 1 1 5D580D2F
P 8950 6550
F 0 "#PWR019" H 8950 6300 50  0001 C CNN
F 1 "GND" H 8955 6377 50  0000 C CNN
F 2 "" H 8950 6550 50  0001 C CNN
F 3 "" H 8950 6550 50  0001 C CNN
	1    8950 6550
	-1   0    0    -1  
$EndComp
Text GLabel 1350 9000 2    50   Input ~ 0
WYJ_Silnik_2A
Text GLabel 1350 8500 2    50   Input ~ 0
WYJ_Silnik_1A
Text GLabel 1350 9900 2    50   Input ~ 0
WYJ_Silnik_2B
Text GLabel 1350 9400 2    50   Input ~ 0
WYJ_Silnik_1B
Text GLabel 9050 5000 0    50   Input ~ 0
RESET
Wire Wire Line
	9050 5000 9300 5000
$Comp
L power:+3.3V #PWR023
U 1 1 5CBDC1FE
P 9300 4600
F 0 "#PWR023" H 9300 4450 50  0001 C CNN
F 1 "+3.3V" H 9315 4773 50  0000 C CNN
F 2 "" H 9300 4600 50  0001 C CNN
F 3 "" H 9300 4600 50  0001 C CNN
	1    9300 4600
	1    0    0    -1  
$EndComp
$Comp
L Device:R_Small R8
U 1 1 5CBDC204
P 9300 4800
F 0 "R8" H 9359 4846 50  0000 L CNN
F 1 "100K" H 9359 4755 50  0000 L CNN
F 2 "Resistor_SMD:R_0805_2012Metric_Pad1.15x1.40mm_HandSolder" H 9300 4800 50  0001 C CNN
F 3 "~" H 9300 4800 50  0001 C CNN
	1    9300 4800
	1    0    0    -1  
$EndComp
Wire Wire Line
	9300 4900 9300 5000
Connection ~ 9300 5000
Wire Wire Line
	9300 4700 9300 4600
Wire Wire Line
	9300 5000 9300 5150
$Comp
L Device:C_Small C7
U 1 1 5CBDC20E
P 9300 5250
F 0 "C7" H 9392 5296 50  0000 L CNN
F 1 "100nF" H 9392 5205 50  0000 L CNN
F 2 "Capacitor_SMD:C_0805_2012Metric_Pad1.15x1.40mm_HandSolder" H 9300 5250 50  0001 C CNN
F 3 "~" H 9300 5250 50  0001 C CNN
	1    9300 5250
	1    0    0    -1  
$EndComp
$Comp
L power:GND #PWR024
U 1 1 5CBDC214
P 9300 5500
F 0 "#PWR024" H 9300 5250 50  0001 C CNN
F 1 "GND" H 9305 5327 50  0000 C CNN
F 2 "" H 9300 5500 50  0001 C CNN
F 3 "" H 9300 5500 50  0001 C CNN
	1    9300 5500
	1    0    0    -1  
$EndComp
Wire Wire Line
	9300 5350 9300 5500
Wire Wire Line
	9300 5000 10400 5000
Wire Wire Line
	11200 7900 11200 8100
Wire Wire Line
	11200 8100 11100 8100
Wire Wire Line
	10900 7900 10900 8100
Wire Wire Line
	11000 7900 11000 8100
Connection ~ 11000 8100
Wire Wire Line
	11000 8100 10900 8100
Wire Wire Line
	11100 7900 11100 8100
Connection ~ 11100 8100
Wire Wire Line
	11100 8100 11000 8100
Wire Wire Line
	11000 8100 11000 8300
Text GLabel 11850 6900 2    50   Input ~ 0
CZ1
Text GLabel 11850 6700 2    50   Input ~ 0
CZ3
Text GLabel 11850 6500 2    50   Input ~ 0
CZ5
Text GLabel 11850 6300 2    50   Input ~ 0
CZ7
Text GLabel 11850 6800 2    50   Input ~ 0
CZ2
Text GLabel 11850 6600 2    50   Input ~ 0
CZ4
Text GLabel 11850 6400 2    50   Input ~ 0
CZ6
Text GLabel 11850 6200 2    50   Input ~ 0
CZ8
Wire Wire Line
	11700 6200 11850 6200
Wire Wire Line
	11700 6300 11850 6300
Wire Wire Line
	11700 6400 11850 6400
Wire Wire Line
	11700 6500 11850 6500
Wire Wire Line
	11700 6600 11850 6600
Wire Wire Line
	11700 6700 11850 6700
Wire Wire Line
	11700 6800 11850 6800
Wire Wire Line
	11700 6900 11850 6900
Text Notes 11450 6100 0    50   ~ 0
PA0-PA7 (ADC)
Text GLabel 11900 7100 2    50   Input ~ 0
PWM_B
Text GLabel 11900 7000 2    50   Input ~ 0
PWM_A
Wire Wire Line
	11900 7000 11700 7000
Wire Wire Line
	11900 7100 11700 7100
Text GLabel 11850 7500 2    50   Input ~ 0
SWDIO
Text GLabel 11850 7600 2    50   Input ~ 0
SWCLK
$Comp
L power:GND #PWR027
U 1 1 5CDC88C1
P 10250 5200
F 0 "#PWR027" H 10250 4950 50  0001 C CNN
F 1 "GND" V 10255 5072 50  0000 R CNN
F 2 "" H 10250 5200 50  0001 C CNN
F 3 "" H 10250 5200 50  0001 C CNN
	1    10250 5200
	1    0    0    -1  
$EndComp
Wire Wire Line
	10250 5200 10400 5200
$Comp
L power:GND #PWR028
U 1 1 5CF5DBAC
P 10750 4350
F 0 "#PWR028" H 10750 4100 50  0001 C CNN
F 1 "GND" H 10755 4177 50  0000 C CNN
F 2 "" H 10750 4350 50  0001 C CNN
F 3 "" H 10750 4350 50  0001 C CNN
	1    10750 4350
	1    0    0    -1  
$EndComp
$Comp
L power:GND #PWR033
U 1 1 5CEFA6E1
P 12400 4550
F 0 "#PWR033" H 12400 4300 50  0001 C CNN
F 1 "GND" H 12405 4377 50  0000 C CNN
F 2 "" H 12400 4550 50  0001 C CNN
F 3 "" H 12400 4550 50  0001 C CNN
	1    12400 4550
	1    0    0    -1  
$EndComp
$Comp
L power:GND #PWR031
U 1 1 5CF78A02
P 11200 4350
F 0 "#PWR031" H 11200 4100 50  0001 C CNN
F 1 "GND" H 11205 4177 50  0000 C CNN
F 2 "" H 11200 4350 50  0001 C CNN
F 3 "" H 11200 4350 50  0001 C CNN
	1    11200 4350
	-1   0    0    -1  
$EndComp
$Comp
L Device:C C9
U 1 1 5CF78A08
P 11050 4350
F 0 "C9" V 11302 4350 50  0000 C CNN
F 1 "100nF" V 11211 4350 50  0000 C CNN
F 2 "Capacitor_SMD:C_0805_2012Metric_Pad1.15x1.40mm_HandSolder" H 11088 4200 50  0001 C CNN
F 3 "~" H 11050 4350 50  0001 C CNN
	1    11050 4350
	0    1    -1   0   
$EndComp
$Comp
L power:GND #PWR032
U 1 1 5CF78A11
P 11650 4350
F 0 "#PWR032" H 11650 4100 50  0001 C CNN
F 1 "GND" H 11655 4177 50  0000 C CNN
F 2 "" H 11650 4350 50  0001 C CNN
F 3 "" H 11650 4350 50  0001 C CNN
	1    11650 4350
	-1   0    0    -1  
$EndComp
Wire Wire Line
	10900 4050 10900 4350
Connection ~ 10900 4350
Wire Wire Line
	10900 4350 10900 4600
Connection ~ 11350 4050
Wire Wire Line
	11350 4050 11800 4050
Wire Wire Line
	11350 4050 11350 4350
$Comp
L Device:C C10
U 1 1 5D14E96D
P 11500 4350
F 0 "C10" V 11752 4350 50  0000 C CNN
F 1 "100nF" V 11661 4350 50  0000 C CNN
F 2 "Capacitor_SMD:C_0805_2012Metric_Pad1.15x1.40mm_HandSolder" H 11538 4200 50  0001 C CNN
F 3 "~" H 11500 4350 50  0001 C CNN
	1    11500 4350
	0    1    -1   0   
$EndComp
$Comp
L Device:C C8
U 1 1 5D1637C2
P 10600 4350
F 0 "C8" V 10852 4350 50  0000 C CNN
F 1 "100nF" V 10761 4350 50  0000 C CNN
F 2 "Capacitor_SMD:C_0805_2012Metric_Pad1.15x1.40mm_HandSolder" H 10638 4200 50  0001 C CNN
F 3 "~" H 10600 4350 50  0001 C CNN
	1    10600 4350
	0    1    -1   0   
$EndComp
Wire Wire Line
	10450 4050 10900 4050
Connection ~ 10900 4050
Connection ~ 11350 4350
Wire Wire Line
	10450 4050 10450 4350
Connection ~ 10450 4350
Wire Wire Line
	10450 4750 11000 4750
Wire Wire Line
	10450 4350 10450 4750
Wire Wire Line
	11000 4800 11000 4750
Wire Wire Line
	10900 4600 11100 4600
Wire Wire Line
	11350 4600 11200 4600
Wire Wire Line
	11350 4350 11350 4600
Wire Wire Line
	11800 4750 11300 4750
Wire Wire Line
	11300 4750 11300 4800
$Comp
L Connector_Generic:Conn_01x04 J2
U 1 1 5D33FDBE
P 12800 7400
F 0 "J2" H 12880 7392 50  0000 L CNN
F 1 "Bluetooth" H 12880 7301 50  0000 L CNN
F 2 "misc:Goldpin_4_Pin" H 12800 7400 50  0001 C CNN
F 3 "~" H 12800 7400 50  0001 C CNN
	1    12800 7400
	1    0    0    -1  
$EndComp
$Comp
L power:+3.3V #PWR035
U 1 1 5D33FDC4
P 12600 7850
F 0 "#PWR035" H 12600 7700 50  0001 C CNN
F 1 "+3.3V" H 12615 8023 50  0000 C CNN
F 2 "" H 12600 7850 50  0001 C CNN
F 3 "" H 12600 7850 50  0001 C CNN
	1    12600 7850
	1    0    0    1   
$EndComp
$Comp
L power:GND #PWR034
U 1 1 5D33FDCA
P 12400 7850
F 0 "#PWR034" H 12400 7600 50  0001 C CNN
F 1 "GND" H 12405 7677 50  0000 C CNN
F 2 "" H 12400 7850 50  0001 C CNN
F 3 "" H 12400 7850 50  0001 C CNN
	1    12400 7850
	1    0    0    -1  
$EndComp
Wire Wire Line
	11700 7400 12600 7400
Wire Wire Line
	11700 7300 12600 7300
Wire Wire Line
	12600 7600 12600 7850
Wire Wire Line
	12400 7850 12400 7500
Wire Wire Line
	12400 7500 12600 7500
Text Notes 12850 7300 0    50   ~ 0
USART6_TX(PA11)
Text Notes 12850 7400 0    50   ~ 0
USART6_RX(PA12)
Wire Wire Line
	10000 7400 10400 7400
Wire Wire Line
	10000 7500 10400 7500
Wire Wire Line
	10000 7600 10400 7600
Wire Wire Line
	10000 7700 10400 7700
Text GLabel 10100 6800 0    50   Input ~ 0
LED1
Text GLabel 10100 6900 0    50   Input ~ 0
LED2
Text GLabel 10100 7000 0    50   Input ~ 0
LED3
Text GLabel 10100 7100 0    50   Input ~ 0
LED4
Wire Wire Line
	10100 7100 10400 7100
Wire Wire Line
	10100 7000 10400 7000
Wire Wire Line
	10100 6900 10400 6900
Wire Wire Line
	10100 6800 10400 6800
Text GLabel 8100 7750 0    50   Input ~ 0
LED4
Text GLabel 8100 7350 0    50   Input ~ 0
LED3
Text GLabel 8100 6950 0    50   Input ~ 0
LED2
Wire Wire Line
	8850 6550 8950 6550
Wire Wire Line
	8200 6550 8100 6550
Text GLabel 8100 6550 0    50   Input ~ 0
LED1
$Comp
L Device:LED D3
U 1 1 5D580D29
P 8700 6550
F 0 "D3" H 8693 6295 50  0000 C CNN
F 1 "LED" H 8693 6386 50  0000 C CNN
F 2 "LED_SMD:LED_0805_2012Metric_Pad1.15x1.40mm_HandSolder" H 8700 6550 50  0001 C CNN
F 3 "~" H 8700 6550 50  0001 C CNN
	1    8700 6550
	-1   0    0    1   
$EndComp
$Comp
L Transistor_FET:IRF9540N Q1
U 1 1 5D5CA22D
P 3750 2150
F 0 "Q1" V 4093 2150 50  0000 C CNN
F 1 "IRF9540N" V 4002 2150 50  0000 C CNN
F 2 "Package_TO_SOT_SMD:TO-252-3_TabPin2" H 3950 2075 50  0001 L CIN
F 3 "http://www.irf.com/product-info/datasheets/data/irf9540n.pdf" H 3750 2150 50  0001 L CNN
	1    3750 2150
	0    -1   -1   0   
$EndComp
$Comp
L Device:R_Small R2
U 1 1 5D64FF59
P 3750 2450
F 0 "R2" H 3809 2496 50  0000 L CNN
F 1 "1K" H 3809 2405 50  0000 L CNN
F 2 "Resistor_SMD:R_0805_2012Metric_Pad1.15x1.40mm_HandSolder" H 3750 2450 50  0001 C CNN
F 3 "~" H 3750 2450 50  0001 C CNN
	1    3750 2450
	1    0    0    -1  
$EndComp
Wire Wire Line
	3350 2550 3750 2550
Text Notes 2850 3100 0    50   ~ 0
ziel-20mA, 2V
$Comp
L power:GND #PWR020
U 1 1 5D8B2ADA
P 8950 6950
F 0 "#PWR020" H 8950 6700 50  0001 C CNN
F 1 "GND" H 8955 6777 50  0000 C CNN
F 2 "" H 8950 6950 50  0001 C CNN
F 3 "" H 8950 6950 50  0001 C CNN
	1    8950 6950
	-1   0    0    -1  
$EndComp
Wire Wire Line
	8850 6950 8950 6950
Wire Wire Line
	8200 6950 8100 6950
$Comp
L Device:LED D4
U 1 1 5D8B2AE3
P 8700 6950
F 0 "D4" H 8693 6695 50  0000 C CNN
F 1 "LED" H 8693 6786 50  0000 C CNN
F 2 "LED_SMD:LED_0805_2012Metric_Pad1.15x1.40mm_HandSolder" H 8700 6950 50  0001 C CNN
F 3 "~" H 8700 6950 50  0001 C CNN
	1    8700 6950
	-1   0    0    1   
$EndComp
$Comp
L power:GND #PWR021
U 1 1 5D921CAB
P 8950 7350
F 0 "#PWR021" H 8950 7100 50  0001 C CNN
F 1 "GND" H 8955 7177 50  0000 C CNN
F 2 "" H 8950 7350 50  0001 C CNN
F 3 "" H 8950 7350 50  0001 C CNN
	1    8950 7350
	-1   0    0    -1  
$EndComp
Wire Wire Line
	8850 7350 8950 7350
Wire Wire Line
	8200 7350 8100 7350
$Comp
L Device:LED D5
U 1 1 5D921CB4
P 8700 7350
F 0 "D5" H 8693 7095 50  0000 C CNN
F 1 "LED" H 8693 7186 50  0000 C CNN
F 2 "LED_SMD:LED_0805_2012Metric_Pad1.15x1.40mm_HandSolder" H 8700 7350 50  0001 C CNN
F 3 "~" H 8700 7350 50  0001 C CNN
	1    8700 7350
	-1   0    0    1   
$EndComp
$Comp
L power:GND #PWR022
U 1 1 5D97A775
P 8950 7750
F 0 "#PWR022" H 8950 7500 50  0001 C CNN
F 1 "GND" H 8955 7577 50  0000 C CNN
F 2 "" H 8950 7750 50  0001 C CNN
F 3 "" H 8950 7750 50  0001 C CNN
	1    8950 7750
	-1   0    0    -1  
$EndComp
Wire Wire Line
	8850 7750 8950 7750
Wire Wire Line
	8200 7750 8100 7750
$Comp
L Device:LED D6
U 1 1 5D97A77E
P 8700 7750
F 0 "D6" H 8693 7495 50  0000 C CNN
F 1 "LED" H 8693 7586 50  0000 C CNN
F 2 "LED_SMD:LED_0805_2012Metric_Pad1.15x1.40mm_HandSolder" H 8700 7750 50  0001 C CNN
F 3 "~" H 8700 7750 50  0001 C CNN
	1    8700 7750
	-1   0    0    1   
$EndComp
$Comp
L power:+3.3V #PWR030
U 1 1 5CFD4F81
P 11150 3750
F 0 "#PWR030" H 11150 3600 50  0001 C CNN
F 1 "+3.3V" H 11165 3923 50  0000 C CNN
F 2 "" H 11150 3750 50  0001 C CNN
F 3 "" H 11150 3750 50  0001 C CNN
	1    11150 3750
	1    0    0    -1  
$EndComp
$Comp
L power:GND #PWR029
U 1 1 5DA2FAFC
P 11000 8300
F 0 "#PWR029" H 11000 8050 50  0001 C CNN
F 1 "GND" H 11005 8127 50  0000 C CNN
F 2 "" H 11000 8300 50  0001 C CNN
F 3 "" H 11000 8300 50  0001 C CNN
	1    11000 8300
	1    0    0    -1  
$EndComp
Connection ~ 11700 7600
Connection ~ 11700 7500
Wire Wire Line
	11700 7600 11850 7600
Wire Wire Line
	11650 7600 11700 7600
Wire Wire Line
	11700 7500 11850 7500
Wire Wire Line
	11650 7500 11700 7500
Wire Wire Line
	11200 4800 11200 4600
Wire Wire Line
	11100 4600 11100 4800
$Comp
L MCU_ST_STM32F4:STM32F410CBTx U3
U 1 1 5CBC8433
P 11100 6300
F 0 "U3" H 11050 4611 50  0000 C CNN
F 1 "STM32F410CBTx" H 11050 4520 50  0000 C CNN
F 2 "Package_QFP:LQFP-48_7x7mm_P0.5mm" H 10500 4800 50  0001 R CNN
F 3 "http://www.st.com/st-web-ui/static/active/en/resource/technical/document/datasheet/DM00214043.pdf" H 11100 6300 50  0001 C CNN
	1    11100 6300
	1    0    0    -1  
$EndComp
NoConn ~ 10400 5400
NoConn ~ 10400 5500
NoConn ~ 10400 5700
NoConn ~ 10400 5800
NoConn ~ 10400 6000
NoConn ~ 10400 6100
NoConn ~ 10400 6200
NoConn ~ 10400 6600
NoConn ~ 10400 7300
NoConn ~ 11700 7200
NoConn ~ 11700 7700
NoConn ~ 10900 4800
Text Notes 4350 3200 0    50   ~ 0
ziel-20mA, 2V
Wire Wire Line
	3950 2050 4200 2050
Wire Wire Line
	11150 3750 11150 4050
Connection ~ 11150 4050
Wire Wire Line
	11150 4050 11350 4050
Wire Wire Line
	10900 4050 11150 4050
$Comp
L Device:CP_Small C12
U 1 1 5CEA406F
P 12000 4750
F 0 "C12" V 11775 4750 50  0000 C CNN
F 1 "10uF" V 11866 4750 50  0000 C CNN
F 2 "Capacitor_Tantalum_SMD:CP_EIA-3216-18_Kemet-A_Pad1.58x1.35mm_HandSolder" H 12000 4750 50  0001 C CNN
F 3 "~" H 12000 4750 50  0001 C CNN
	1    12000 4750
	0    -1   1    0   
$EndComp
Wire Wire Line
	12200 4550 12400 4550
Connection ~ 12200 4550
Wire Wire Line
	12200 4550 12200 4350
NoConn ~ 10400 6500
NoConn ~ 10400 6400
NoConn ~ 10400 7200
$Comp
L Device:CP_Small C2
U 1 1 5CFB7F08
P 2950 7700
F 0 "C2" V 2725 7700 50  0000 C CNN
F 1 "10uF" V 2816 7700 50  0000 C CNN
F 2 "Capacitor_Tantalum_SMD:CP_EIA-3216-18_Kemet-A_Pad1.58x1.35mm_HandSolder" H 2950 7700 50  0001 C CNN
F 3 "~" H 2950 7700 50  0001 C CNN
	1    2950 7700
	0    1    1    0   
$EndComp
Wire Wire Line
	3100 7300 3100 7700
Wire Wire Line
	2800 7700 2850 7700
Wire Wire Line
	3050 7700 3100 7700
Connection ~ 3100 7700
Wire Wire Line
	3100 7700 3100 8000
$Comp
L Device:CP_Small C6
U 1 1 5CFF7E9C
P 4750 7850
F 0 "C6" H 4838 7896 50  0000 L CNN
F 1 "10uF" H 4838 7805 50  0000 L CNN
F 2 "Capacitor_Tantalum_SMD:CP_EIA-3216-18_Kemet-A_Pad1.58x1.35mm_HandSolder" H 4750 7850 50  0001 C CNN
F 3 "~" H 4750 7850 50  0001 C CNN
	1    4750 7850
	1    0    0    -1  
$EndComp
Wire Wire Line
	4350 8000 4350 8050
Wire Wire Line
	4350 8050 4550 8050
Wire Wire Line
	4750 8050 4750 7950
Connection ~ 4550 8050
Wire Wire Line
	4550 8050 4750 8050
Wire Wire Line
	4350 7700 4750 7700
Wire Wire Line
	4750 7700 4750 7750
NoConn ~ 10400 6700
Text Notes 7000 6550 0    50   ~ 0
ziel-20mA, 2V
Text Notes 6950 6900 0    50   ~ 0
czer-20mA, 2V
Text Notes 6950 7300 0    50   ~ 0
ziel-20mA, 2V
Text Notes 6900 7650 0    50   ~ 0
czer-20mA, 2V
$Comp
L Device:R_Small R4
U 1 1 5D17D374
P 8300 6550
F 0 "R4" V 8104 6550 50  0000 C CNN
F 1 "130R" V 8195 6550 50  0000 C CNN
F 2 "Resistor_SMD:R_0805_2012Metric_Pad1.15x1.40mm_HandSolder" H 8300 6550 50  0001 C CNN
F 3 "~" H 8300 6550 50  0001 C CNN
	1    8300 6550
	0    1    1    0   
$EndComp
Wire Wire Line
	8400 6550 8550 6550
$Comp
L Device:R_Small R5
U 1 1 5D1DB6A6
P 8300 6950
F 0 "R5" V 8104 6950 50  0000 C CNN
F 1 "130R" V 8195 6950 50  0000 C CNN
F 2 "Resistor_SMD:R_0805_2012Metric_Pad1.15x1.40mm_HandSolder" H 8300 6950 50  0001 C CNN
F 3 "~" H 8300 6950 50  0001 C CNN
	1    8300 6950
	0    1    1    0   
$EndComp
Wire Wire Line
	8400 6950 8550 6950
$Comp
L Device:R_Small R6
U 1 1 5D22A624
P 8300 7350
F 0 "R6" V 8104 7350 50  0000 C CNN
F 1 "130R" V 8195 7350 50  0000 C CNN
F 2 "Resistor_SMD:R_0805_2012Metric_Pad1.15x1.40mm_HandSolder" H 8300 7350 50  0001 C CNN
F 3 "~" H 8300 7350 50  0001 C CNN
	1    8300 7350
	0    1    1    0   
$EndComp
Wire Wire Line
	8400 7350 8550 7350
$Comp
L Device:R_Small R7
U 1 1 5D22A62B
P 8300 7750
F 0 "R7" V 8104 7750 50  0000 C CNN
F 1 "130R" V 8195 7750 50  0000 C CNN
F 2 "Resistor_SMD:R_0805_2012Metric_Pad1.15x1.40mm_HandSolder" H 8300 7750 50  0001 C CNN
F 3 "~" H 8300 7750 50  0001 C CNN
	1    8300 7750
	0    1    1    0   
$EndComp
Wire Wire Line
	8400 7750 8550 7750
$Comp
L power:PWR_FLAG #FLG03
U 1 1 5CCF55C4
P 9800 900
F 0 "#FLG03" H 9800 975 50  0001 C CNN
F 1 "PWR_FLAG" H 9800 1073 50  0000 C CNN
F 2 "" H 9800 900 50  0001 C CNN
F 3 "~" H 9800 900 50  0001 C CNN
	1    9800 900 
	1    0    0    -1  
$EndComp
$Comp
L power:GND #PWR026
U 1 1 5CD20BBA
P 9800 1100
F 0 "#PWR026" H 9800 850 50  0001 C CNN
F 1 "GND" H 9805 927 50  0000 C CNN
F 2 "" H 9800 1100 50  0001 C CNN
F 3 "" H 9800 1100 50  0001 C CNN
	1    9800 1100
	1    0    0    -1  
$EndComp
Wire Wire Line
	9800 1100 9800 900 
$Comp
L power:+8V #PWR025
U 1 1 5CC3655C
P 9400 900
F 0 "#PWR025" H 9400 750 50  0001 C CNN
F 1 "+8V" H 9415 1073 50  0000 C CNN
F 2 "" H 9400 900 50  0001 C CNN
F 3 "" H 9400 900 50  0001 C CNN
	1    9400 900 
	1    0    0    -1  
$EndComp
$Comp
L power:PWR_FLAG #FLG02
U 1 1 5CCBB817
P 9400 1100
F 0 "#FLG02" H 9400 1175 50  0001 C CNN
F 1 "PWR_FLAG" H 9400 1273 50  0000 C CNN
F 2 "" H 9400 1100 50  0001 C CNN
F 3 "~" H 9400 1100 50  0001 C CNN
	1    9400 1100
	-1   0    0    1   
$EndComp
Wire Wire Line
	9400 900  9400 1100
$Comp
L power:PWR_FLAG #FLG01
U 1 1 5CC33D54
P 8950 1100
F 0 "#FLG01" H 8950 1175 50  0001 C CNN
F 1 "PWR_FLAG" H 8950 1273 50  0000 C CNN
F 2 "" H 8950 1100 50  0001 C CNN
F 3 "~" H 8950 1100 50  0001 C CNN
	1    8950 1100
	-1   0    0    1   
$EndComp
$Comp
L power:VCC #PWR018
U 1 1 5CC38306
P 8950 900
F 0 "#PWR018" H 8950 750 50  0001 C CNN
F 1 "VCC" H 8967 1073 50  0000 C CNN
F 2 "" H 8950 900 50  0001 C CNN
F 3 "" H 8950 900 50  0001 C CNN
	1    8950 900 
	1    0    0    -1  
$EndComp
Wire Wire Line
	8950 900  8950 1100
$Comp
L Device:C C11
U 1 1 5CF78A17
P 12000 4350
F 0 "C11" V 12252 4350 50  0000 C CNN
F 1 "100nF" V 12161 4350 50  0000 C CNN
F 2 "Capacitor_SMD:C_0805_2012Metric_Pad1.15x1.40mm_HandSolder" H 12038 4200 50  0001 C CNN
F 3 "~" H 12000 4350 50  0001 C CNN
	1    12000 4350
	0    1    -1   0   
$EndComp
Wire Wire Line
	11800 4050 11800 4350
Wire Wire Line
	11800 4350 11850 4350
Connection ~ 11800 4350
Wire Wire Line
	11800 4350 11800 4750
Wire Wire Line
	12150 4350 12200 4350
Wire Wire Line
	11800 4750 11900 4750
Connection ~ 11800 4750
Wire Wire Line
	12100 4750 12200 4750
Wire Wire Line
	12200 4550 12200 4750
$Comp
L power:+3.3V #PWR038
U 1 1 5CDE4A14
P 13300 5750
F 0 "#PWR038" H 13300 5600 50  0001 C CNN
F 1 "+3.3V" H 13315 5923 50  0000 C CNN
F 2 "" H 13300 5750 50  0001 C CNN
F 3 "" H 13300 5750 50  0001 C CNN
	1    13300 5750
	1    0    0    -1  
$EndComp
Wire Wire Line
	13300 5750 13300 5850
Wire Wire Line
	13450 5850 13300 5850
$Comp
L Connector_Generic:Conn_01x10 J3
U 1 1 5CDB6C93
P 13650 6350
F 0 "J3" H 13730 6342 50  0000 L CNN
F 1 "Conn_01x10" H 13730 6251 50  0000 L CNN
F 2 "Connector_FFC-FPC:TE_1-84952-0_1x10-1MP_P1.0mm_Horizontal" H 13650 6350 50  0001 C CNN
F 3 "~" H 13650 6350 50  0001 C CNN
	1    13650 6350
	1    0    0    1   
$EndComp
$Comp
L power:+3.3V #PWR036
U 1 1 5CC8BE04
P 13200 4800
F 0 "#PWR036" H 13200 4650 50  0001 C CNN
F 1 "+3.3V" H 13215 4973 50  0000 C CNN
F 2 "" H 13200 4800 50  0001 C CNN
F 3 "" H 13200 4800 50  0001 C CNN
	1    13200 4800
	1    0    0    -1  
$EndComp
$Comp
L power:GND #PWR02
U 1 1 5CC8C936
P 2700 7500
F 0 "#PWR02" H 2700 7250 50  0001 C CNN
F 1 "GND" H 2705 7327 50  0000 C CNN
F 2 "" H 2700 7500 50  0001 C CNN
F 3 "" H 2700 7500 50  0001 C CNN
	1    2700 7500
	1    0    0    -1  
$EndComp
Wire Wire Line
	13600 5000 13200 5000
Wire Wire Line
	13200 4800 13600 4800
$Comp
L power:GND #PWR037
U 1 1 5CCFEFBE
P 13200 5000
F 0 "#PWR037" H 13200 4750 50  0001 C CNN
F 1 "GND" H 13205 4827 50  0000 C CNN
F 2 "" H 13200 5000 50  0001 C CNN
F 3 "" H 13200 5000 50  0001 C CNN
	1    13200 5000
	1    0    0    -1  
$EndComp
$Comp
L Motor:Motor_DC M1
U 1 1 5CC79B05
P 1350 8700
F 0 "M1" H 1508 8696 50  0000 L CNN
F 1 "Motor_DC" H 1508 8605 50  0000 L CNN
F 2 "TerminalBlock_TE-Connectivity:TerminalBlock_TE_282834-2_1x02_P2.54mm_Horizontal" H 1350 8610 50  0001 C CNN
F 3 "~" H 1350 8610 50  0001 C CNN
	1    1350 8700
	1    0    0    -1  
$EndComp
$Comp
L Motor:Motor_DC M2
U 1 1 5CC7B003
P 1350 9600
F 0 "M2" H 1508 9596 50  0000 L CNN
F 1 "Motor_DC" H 1508 9505 50  0000 L CNN
F 2 "TerminalBlock_TE-Connectivity:TerminalBlock_TE_282834-2_1x02_P2.54mm_Horizontal" H 1350 9510 50  0001 C CNN
F 3 "~" H 1350 9510 50  0001 C CNN
	1    1350 9600
	1    0    0    -1  
$EndComp
Wire Wire Line
	3900 8000 4000 8000
Connection ~ 4350 7700
Text Notes 3550 7450 0    50   ~ 0
Mostek H
Wire Wire Line
	4000 7700 4350 7700
Connection ~ 4000 7700
Wire Wire Line
	4000 7700 4000 8000
$Comp
L power:+8V #PWR011
U 1 1 5CB29BE6
P 4000 7650
F 0 "#PWR011" H 4000 7500 50  0001 C CNN
F 1 "+8V" V 4015 7778 50  0000 L CNN
F 2 "" H 4000 7650 50  0001 C CNN
F 3 "" H 4000 7650 50  0001 C CNN
	1    4000 7650
	1    0    0    -1  
$EndComp
Wire Wire Line
	4000 7650 4000 7700
Connection ~ 4000 8000
Connection ~ 3900 8000
Wire Wire Line
	3800 8000 3900 8000
Wire Wire Line
	3900 10000 3900 10200
Wire Wire Line
	3800 10000 3800 10200
Wire Wire Line
	3700 10000 3700 10200
Wire Wire Line
	3400 10000 3400 10200
Wire Wire Line
	4000 10000 4000 10200
$Comp
L Driver_Motor:TB6612FNG U1
U 1 1 5CADC9CB
P 3700 9000
F 0 "U1" H 3700 10181 50  0000 C CNN
F 1 "TB6612FNG" H 3700 10090 50  0000 C CNN
F 2 "Package_SO:SSOP-24_5.3x8.2mm_P0.65mm" H 4150 9600 50  0001 C CNN
F 3 "https://toshiba.semicon-storage.com/us/product/linear/motordriver/detail.TB6612FNG.html" H 4150 9600 50  0001 C CNN
	1    3700 9000
	1    0    0    -1  
$EndComp
Text GLabel 10000 7500 0    50   Input ~ 0
WEJ_B1
Text GLabel 10000 7400 0    50   Input ~ 0
WEJ_B2
Text GLabel 10000 7700 0    50   Input ~ 0
WEJ_A1
Text GLabel 10000 7600 0    50   Input ~ 0
WEJ_A2
$EndSCHEMATC
